<?xml version="1.0" encoding="UTF-8" standalone="no"?>
<!-- Created with Inkscape (http://www.inkscape.org/) -->

<svg
   xmlns:dc="http://purl.org/dc/elements/1.1/"
   xmlns:cc="http://creativecommons.org/ns#"
   xmlns:rdf="http://www.w3.org/1999/02/22-rdf-syntax-ns#"
   xmlns:svg="http://www.w3.org/2000/svg"
   xmlns="http://www.w3.org/2000/svg"
   xmlns:sodipodi="http://sodipodi.sourceforge.net/DTD/sodipodi-0.dtd"
   xmlns:inkscape="http://www.inkscape.org/namespaces/inkscape"
   width="800"
   height="60"
   viewBox="-0.7 0 211.66668 15.874999"
   version="1.1"
   id="svg4516"
   inkscape:version="0.92.1 r15371"
   sodipodi:docname="trustable-banner.svg"
   inkscape:export-filename="/home/paulalbertella/trustable/trustable.gitlab.io/content/images/trustable-banner.png"
   inkscape:export-xdpi="192"
   inkscape:export-ydpi="192">
  <defs
     id="defs4510" />
  <sodipodi:namedview
     id="base"
     pagecolor="#ffffff"
     bordercolor="#666666"
     borderopacity="1.0"
     inkscape:pageopacity="0.0"
     inkscape:pageshadow="2"
     inkscape:zoom="1.4"
     inkscape:cx="199.70084"
     inkscape:cy="-121.03639"
     inkscape:document-units="mm"
     inkscape:current-layer="layer1"
     showgrid="false"
     viewbox-x="-0.7"
     fit-margin-top="0"
     fit-margin-left="0"
     fit-margin-right="0"
     fit-margin-bottom="0"
     inkscape:window-width="1920"
     inkscape:window-height="1016"
     inkscape:window-x="0"
     inkscape:window-y="27"
     inkscape:window-maximized="1"
     units="px" />
  <metadata
     id="metadata4513">
    <rdf:RDF>
      <cc:Work
         rdf:about="">
        <dc:format>image/svg+xml</dc:format>
        <dc:type
           rdf:resource="http://purl.org/dc/dcmitype/StillImage" />
        <dc:title></dc:title>
      </cc:Work>
    </rdf:RDF>
  </metadata>
  <g
     inkscape:label="Layer 1"
     inkscape:groupmode="layer"
     id="layer1"
     transform="translate(-2.5898731,-17.675594)">
    <rect
       style="fill:#0d7a5a;fill-opacity:1;stroke-width:0.30064544"
       id="rect4518"
       width="211.66667"
       height="15.875"
       x="1.8898731"
       y="17.675594" />
    <g
       id="g4505"
       transform="translate(73.581527)">
      <text
         id="text4522"
         y="30.148808"
         x="4.9514885"
         style="font-style:normal;font-variant:normal;font-weight:normal;font-stretch:normal;font-size:25.39999962px;line-height:1.25;font-family:'Open Sans';-inkscape-font-specification:'Open Sans';letter-spacing:0px;word-spacing:0px;fill:#000000;fill-opacity:1;stroke:none;stroke-width:0.26458332"
         xml:space="preserve"><tspan
           style="font-size:14.11111069px;fill:#ffffff;stroke-width:0.26458332"
           y="30.148808"
           x="4.9514885"
           id="tspan4520"
           sodipodi:role="line">trustable<tspan
   id="tspan4524"
   style="font-size:4.93888903px;line-height:0;letter-spacing:0px" /></tspan></text>
      <text
         id="text4528"
         y="21.442362"
         x="59.531246"
         style="font-style:normal;font-variant:normal;font-weight:normal;font-stretch:normal;font-size:25.39999962px;line-height:1.25;font-family:'Open Sans';-inkscape-font-specification:'Open Sans';letter-spacing:0px;word-spacing:0px;fill:#000000;fill-opacity:1;stroke:none;stroke-width:0.26458332"
         xml:space="preserve"><tspan
           style="font-style:normal;font-variant:normal;font-weight:300;font-stretch:normal;font-size:2.82222223px;font-family:'Open Sans';-inkscape-font-specification:'Open Sans Light';fill:#ffffff;stroke-width:0.26458332"
           y="21.442362"
           x="59.531246"
           id="tspan4526"
           sodipodi:role="line">TM</tspan></text>
    </g>
    <flowRoot
       xml:space="preserve"
       id="flowRoot4549"
       style="font-style:normal;font-variant:normal;font-weight:normal;font-stretch:normal;font-size:96px;line-height:1.25;font-family:'Open Sans';-inkscape-font-specification:'Open Sans';letter-spacing:0px;word-spacing:0px;fill:#000000;fill-opacity:1;stroke:none"><flowRegion
         id="flowRegion4551"><rect
           id="rect4553"
           width="238.57143"
           height="114.28571"
           x="5.7142859"
           y="-17.857145" /></flowRegion><flowPara
         id="flowPara4555" /></flowRoot>  </g>
</svg>
